…
``` r
#calculate avg ride_time by month and user type
ride_time_month <- merged_2024 %>% 
  group_by(member_casual, ride_month) %>% 
  summarise(mean = mean(ride_time_min))
```

    ## `summarise()` has grouped output by 'member_casual'. You can override using the
    ## `.groups` argument.

``` r
as_tibble(ride_time_month)
```

    ## # A tibble: 24 × 3
    ##    member_casual ride_month mean         
    ##    <chr>         <ord>      <drtn>       
    ##  1 casual        January    13.66143 mins
    ##  2 casual        February   18.09625 mins
    ##  3 casual        March      19.58065 mins
    ##  4 casual        April      21.44337 mins
    ##  5 casual        May        23.45044 mins
    ##  6 casual        June       22.72396 mins
    ##  7 casual        July       23.24570 mins
    ##  8 casual        August     21.82665 mins
    ##  9 casual        September  18.63685 mins
    ## 10 casual        October    19.72420 mins
    ## # ℹ 14 more rows

Calculate the number of rides by month and user type.

``` r
num_rides_month <- merged_2024 %>% 
  count(member_casual, ride_month, name = "num_rides")

as_tibble(num_rides_month)
```

    ## # A tibble: 24 × 3
    ##    member_casual ride_month num_rides
    ##    <chr>         <ord>          <int>
    ##  1 casual        January        24320
    ##  2 casual        February       46931
    ##  3 casual        March          82200
    ##  4 casual        April         131337
    ##  5 casual        May           230327
    ##  6 casual        June          300153
    ##  7 casual        July          319560
    ##  8 casual        August        317542
    ##  9 casual        September     345854
    ## 10 casual        October       215933
    ## # ℹ 14 more rows
…
``` r
#ride count by month
month_count <- merged_2024 %>% 
  group_by(member_casual, ride_month) %>% 
  summarize(ride_count = n())
```

    ## `summarise()` has grouped output by 'member_casual'. You can override using the
    ## `.groups` argument.

``` r
as_tibble(month_count)
```

    ## # A tibble: 24 × 3
    ##    member_casual ride_month ride_count
    ##    <chr>         <ord>           <int>
    ##  1 casual        January         24320
    ##  2 casual        February        46931
    ##  3 casual        March           82200
    ##  4 casual        April          131337
    ##  5 casual        May            230327
    ##  6 casual        June           300153
    ##  7 casual        July           319560
    ##  8 casual        August         317542
    ##  9 casual        September      345854
    ## 10 casual        October        215933
    ## # ℹ 14 more rows
…
